<?xml version="1.0" encoding="utf-8"?>
<!-- Generator: Adobe Illustrator 16.0.0, SVG Export Plug-In . SVG Version: 6.00 Build 0)  -->
<!DOCTYPE svg PUBLIC "-//W3C//DTD SVG 1.1//EN" "http://www.w3.org/Graphics/SVG/1.1/DTD/svg11.dtd">
<svg version="1.1" id="Layer_1" xmlns="http://www.w3.org/2000/svg" xmlns:xlink="http://www.w3.org/1999/xlink" x="0px" y="0px"
	 width="29px" height="29px" viewBox="203.5 38.5 29 29" enable-background="new 203.5 38.5 29 29" xml:space="preserve">
<path fill="#2199CB" d="M232.5,63.633c0,2.127-1.74,3.867-3.866,3.867h-21.268c-2.126,0-3.866-1.74-3.866-3.867V42.367
	c0-2.127,1.74-3.867,3.866-3.867h21.268c2.126,0,3.866,1.74,3.866,3.867V63.633z"/>
<path opacity="0.1" d="M232.5,63.633c0,2.127-1.74,3.867-3.866,3.867h-21.268c-2.126,0-3.866-1.74-3.866-3.867V42.367
	c0-2.127,1.74-3.867,3.866-3.867h21.268c2.126,0,3.866,1.74,3.866,3.867V63.633z"/>
<g>
	<path fill="#FFFFFF" d="M225.033,46.498l-2.715,13.686c0,0-0.379,0.949-1.424,0.492l-6.262-4.801l-2.278-1.102l-3.833-1.291
		c0,0-0.589-0.208-0.646-0.664c-0.058-0.455,0.664-0.702,0.664-0.702l15.241-5.978C223.781,46.139,225.033,45.588,225.033,46.498z"
		/>
	<path fill="#D2E5F1" d="M214.151,60.029c0,0-0.183-0.018-0.411-0.738c-0.227-0.723-1.386-4.518-1.386-4.518l9.206-5.846
		c0,0,0.531-0.323,0.512,0c0,0,0.095,0.057-0.189,0.323c-0.284,0.265-7.231,6.509-7.231,6.509"/>
	<path fill="#B5CFE4" d="M217.034,57.715l-2.478,2.26c0,0-0.193,0.146-0.405,0.055l0.475-4.195"/>
</g>
</svg>
