<?xml version="1.0" encoding="utf-8"?>
<!-- Generator: Adobe Illustrator 16.0.0, SVG Export Plug-In . SVG Version: 6.00 Build 0)  -->
<!DOCTYPE svg PUBLIC "-//W3C//DTD SVG 1.1//EN" "http://www.w3.org/Graphics/SVG/1.1/DTD/svg11.dtd">
<svg version="1.1" id="Layer_1" xmlns="http://www.w3.org/2000/svg" xmlns:xlink="http://www.w3.org/1999/xlink" x="0px" y="0px"
	 width="29px" height="29px" viewBox="0 151.083 29 29" enable-background="new 0 151.083 29 29" xml:space="preserve">
<g>
	<path fill-rule="evenodd" clip-rule="evenodd" fill="#4452A0" d="M3,151.083h23c1.656,0,3,1.343,3,3v23c0,1.657-1.344,3-3,3H3
		c-1.656,0-3-1.343-3-3v-23C0,152.426,1.344,151.083,3,151.083z"/>
	<path id="Fill-3_1_" fill="#FFFFFF" d="M19,180.083v-11h5l0.5-4H19v-2.974c0-1.235,0.388-2.079,2.3-2.079H24v-3.78
		c-0.421-0.052-1.196-0.167-2.887-0.167c-3.529,0-5.947,2.016-6.072,6l-0.041,3h-4v4h4v11H19z"/>
</g>
</svg>
