<?xml version="1.0" encoding="utf-8"?>
<!-- Generator: Adobe Illustrator 16.0.0, SVG Export Plug-In . SVG Version: 6.00 Build 0)  -->
<!DOCTYPE svg PUBLIC "-//W3C//DTD SVG 1.1//EN" "http://www.w3.org/Graphics/SVG/1.1/DTD/svg11.dtd">
<svg version="1.1" id="Layer_1" xmlns="http://www.w3.org/2000/svg" xmlns:xlink="http://www.w3.org/1999/xlink" x="0px" y="0px"
	 width="29px" height="29px" viewBox="203.5 151.083 29 29" enable-background="new 203.5 151.083 29 29" xml:space="preserve">
<g>
	<path fill-rule="evenodd" clip-rule="evenodd" fill="#4A71A5" d="M206.5,151.083h23c1.656,0,3,1.344,3,3v23c0,1.658-1.344,3-3,3
		h-23c-1.656,0-3-1.342-3-3v-23C203.5,152.427,204.844,151.083,206.5,151.083z"/>
	<path fill-rule="evenodd" clip-rule="evenodd" fill="#FFFFFF" d="M217.797,170.926h1.13c0,0,0.341-0.038,0.515-0.227
		c0.16-0.172,0.155-0.495,0.155-0.495s-0.022-1.515,0.681-1.738c0.693-0.22,1.583,1.464,2.526,2.112
		c0.713,0.489,1.255,0.382,1.255,0.382l2.522-0.034c0,0,1.319-0.082,0.693-1.119c-0.051-0.085-0.364-0.768-1.875-2.17
		c-1.582-1.468-1.369-1.229,0.535-3.77c1.16-1.546,1.624-2.489,1.479-2.894c-0.138-0.386-0.99-0.284-0.99-0.284l-2.84,0.018
		c0,0-0.211-0.028-0.367,0.064c-0.152,0.092-0.25,0.305-0.25,0.305s-0.45,1.196-1.05,2.214c-1.265,2.148-1.77,2.261-1.976,2.128
		c-0.481-0.312-0.361-1.249-0.361-1.915c0-2.08,0.315-2.947-0.614-3.172c-0.31-0.075-0.537-0.125-1.326-0.133
		c-1.013-0.01-1.87,0.004-2.356,0.241c-0.323,0.158-0.572,0.511-0.42,0.53c0.188,0.025,0.612,0.115,0.838,0.422
		c0.291,0.396,0.28,1.285,0.28,1.285s0.168,2.449-0.39,2.754c-0.383,0.209-0.908-0.217-2.035-2.166
		c-0.578-0.998-1.014-2.1-1.014-2.1s-0.084-0.207-0.234-0.317c-0.183-0.134-0.437-0.176-0.437-0.176l-2.698,0.018
		c0,0-0.405,0.011-0.554,0.188c-0.132,0.157-0.01,0.481-0.01,0.481s2.112,4.942,4.504,7.433
		C215.307,171.075,217.797,170.926,217.797,170.926L217.797,170.926z"/>
</g>
</svg>
